Division,BodyweightKg,WeightClassKg,Sex,Equipment,Name,Best3SquatKg,Squat4Kg,Best3BenchKg,Bench4Kg,Best3DeadliftKg,Deadlift4Kg,TotalKg,Event,BirthDate,Place
Amateur Teen 14-15,72.89,75,F,Wraps,Julia Aposokas,117.93,,63.5,,132.68,142.88,314.11,SBD,,1
Amateur Juniors 20-23,59.56,60,F,Wraps,Olivia Riggs,113.4,,52.16,,124.74,132.68,290.3,SBD,,1
Amateur Juniors 20-23,82.42,82.5,F,Wraps,Brianna Shay,136.08,148.55,61.23,,147.42,,344.73,SBD,,1
Amateur Open,67.47,67.5,F,Wraps,Alaina Landis,139.48,,58.97,,133.81,,332.26,SBD,,1
Amateur Open,74.16,75,F,Wraps,Alyssa Chamberlain,129.27,,63.5,,156.49,,349.27,SBD,,1
Amateur Masters 40-44,80.69,82.5,F,Wraps,Lisa Baker #3,97.52,99.79,74.84,77.11,108.86,113.4,281.23,SBD,,1
Amateur Masters 45-49,53.41,56,F,Wraps,Catarina Aldi,77.11,,49.9,,106.59,111.13,233.6,SBD,,1
Amateur Masters 45-49,72.39,75,F,Wraps,Laurie Hubler,83.91,,47.63,,97.52,99.79,229.06,SBD,,1
Amateur Masters 50-54,59.53,60,F,Wraps,Lori Snook,65.77,70.31,36.29,38.56,113.4,,215.46,SBD,,1
Amateur Masters 55-59,66.27,67.5,F,Wraps,Leslie Feehrer,90.72,95.25,45.36,,104.33,108.86,240.4,SBD,,1
Amateur Masters 60-64,51.01,52,F,Raw,Sandy Beamer,,,41.96,,,,41.96,B,,1
Amateur Masters 65-69,89.74,90,F,Raw,Shirley Lynn,,,43.09,,70.31,74.84,113.4,BD,,1
Amateur Teen 14-15,54.75,56,M,Wraps,Kade Kulpinski,120.2,,83.91,,156.49,,360.61,SBD,,1
Amateur Teen 14-15,65.36,67.5,M,Wraps,Thomas Weigle,131.54,141.75,92.99,,156.49,,381.02,SBD,,1
Amateur Teen 16-17,53.95,56,M,Wraps,Alex Haye,113.4,,70.31,,133.81,,317.51,SBD,,1
Amateur Teen 16-17,80.97,82.5,M,Wraps,Tanner Blum,151.95,,97.52,,165.56,,415.04,SBD,,1
Amateur Teen 16-17,89.63,90,M,Wraps,Cooper Funk,206.38,213.19,136.08,,233.6,,576.06,SBD,,1
Amateur Teen 18-19,65.41,67.5,M,Wraps,Dorian Koelle,154.22,,94.12,,181.44,,429.78,SBD,,1
Amateur Teen 18-19,74.96,75,M,Wraps,Hunter Schwartz,176.9,,110,111.13,197.31,,484.21,SBD,,1
Amateur Teen 18-19,80.6,82.5,M,Wraps,Logan Vongunden,151.95,,95.25,,215.46,,462.66,SBD,,1
Amateur Teen 18-19,103.19,110,M,Wraps,Brandon Hershey,163.29,,116.8,119.07,213.19,,493.28,SBD,,1
Amateur Juniors 20-23,74.21,75,M,Wraps,Jacob Drake,176.9,,104.33,,195.04,,476.27,SBD,,1
Amateur Juniors 20-23,109.09,110,M,Wraps,Kenneth Fields,226.8,,142.88,,,,,SBD,,DQ
Amateur Juniors 20-23,124.1,125,M,Wraps,Bryce Miller,260.82,,161.03,,242.67,,664.51,SBD,,1
Amateur Juniors 20-23,119.11,125,M,Wraps,Matthew Maldenado,195.04,215.46,104.33,,224.53,242.67,523.9,SBD,,2
Amateur Open,98.75,100,M,Wraps,Owen Donahue,226.8,,156.49,,276.69,,659.98,SBD,,1
Amateur Open,107.41,110,M,Wraps,Rudy Salandanan Jr,335.66,,195.04,,285.76,,816.47,SBD,,1
Amateur Open,109.09,110,M,Wraps,Kenneth Fields,226.8,,142.88,,,,,SBD,,DQ
Amateur Open,114.94,125,M,Wraps,Zachery Garrett,204.12,,124.74,,231.33,,560.19,SBD,,1
Amateur Submasters 33-39,98.38,100,M,Wraps,Robert Pasternacki,226.8,232.47,176.9,,258.55,,662.24,SBD,,1
Amateur Masters 40-44,66.25,67.5,M,Wraps,Julien Stoutt,165.56,,111.13,,182.57,,459.26,SBD,,1
Amateur Masters 40-44,106.5,110,M,Wraps,Scott Brown,215.46,221.13,158.76,,222.26,226.8,596.47,SBD,,1
Amateur Masters 50-54,81.44,82.5,M,Wraps,Carl Barkley,226.8,,151.95,,204.12,,582.87,SBD,,1
Amateur Masters 55-59,104.14,110,M,Wraps,William Muse,140.61,,86.18,,145.15,,371.95,SBD,,1
Amateur Masters 60-64,54.66,56,M,Wraps,Don Christman,83.91,94.12,68.04,,129.27,,281.23,SBD,,1
Amateur Masters 65-69,80.38,82.5,M,Wraps,Greg Fanelli,102.06,,88.45,,189.37,,379.88,SBD,,1
Amateur Masters 65-69,81.76,82.5,M,Wraps,David Ellis,68.04,,81.65,,106.59,,256.28,SBD,,2
Amateur Police,109.09,110,M,Wraps,Kenneth Fields,226.8,,142.88,,,,,SBD,,DQ
Amateur Teen 14-15,75.3,82.5,M,Multi-ply,David Sands III,158.76,,136.08,,147.42,,442.25,SBD,,1
Amateur Teen 14-15,102.4,110,M,Multi-ply,Noah Himes,195.04,,79.38,,158.76,,433.18,SBD,,1
Amateur Teen 16-17,81.47,82.5,M,Multi-ply,Aidan Vetter,183.7,,120.2,,206.38,,510.29,SBD,,1
Amateur Masters 75-79,98.75,100,M,Multi-ply,William Bracey,127.01,,95.25,,147.42,,369.68,SBD,,1
Pro Open,81.71,82.5,M,Wraps,Robert Brewer,190.51,,117.93,,181.44,192.78,489.88,SBD,,1
Pro Open,140.89,140+,M,Wraps,Dan Kovacs,274.42,,258.55,,335.66,,868.63,SBD,,1
Pro Submasters 33-39,81.71,82.5,M,Wraps,Robert Brewer,190.51,,117.93,,181.44,192.78,489.88,SBD,,1
Pro Masters 50-54,140.89,140+,M,Wraps,Dan Kovacs,274.42,,258.55,,335.66,,868.63,SBD,,1
Pro Masters 60-64,74.43,75,M,Wraps,Doug Schader,158.76,,88.45,,142.88,,390.09,SBD,,1
Pro Masters 60-64,98.38,100,M,Wraps,Joe Avigliano,199.58,,127.01,,195.04,,521.63,SBD,,1
Pro Juniors 20-23,117.41,125,M,Multi-ply,Alexander Punchello,394.63,410.5,342.46,365.14,292.5,,1029.59,SBD,,1
Pro Open,80.78,82.5,M,Multi-ply,Sean Hightman,337.93,,356.07,,258.55,,952.54,SBD,,1
Pro Open,77.16,82.5,M,Multi-ply,Caden Williams,272.16,,204.12,,272.16,,748.43,SBD,,2
Pro Open,121.7,125,M,Multi-ply,Adam Hartlaub,385.55,,371.95,,301.64,,1059.14,SBD,,1
Pro Open,112.67,125,M,Multi-ply,Derrick Bender,365.14,,335.66,,317.51,,1018.31,SBD,,2
Pro Open,121.61,125,M,Multi-ply,Michael Grasso,417.3,,278.96,,272.16,,968.42,SBD,,3
Pro Submasters 33-39,80.78,82.5,M,Multi-ply,Sean Hightman,337.93,,356.07,,258.55,,952.54,SBD,,1
Pro Masters 50-54,120.7,125,M,Multi-ply,Steve Diel,399.16,,381.02,,272.16,,1052.33,SBD,,1
Amateur Teen,58.42,60,M,Raw,Landon Marsh,,,72.57,,,,72.57,B,,1
Amateur Open,109,110,M,Raw,Timothy Schultz,,,185.97,,,,185.97,B,,1
Amateur Open,105.07,110,M,Raw,Octavius Burnett,,,158.76,,,,158.76,B,,2
Amateur Submasters 33-39,109,110,M,Raw,Timothy Schultz,,,185.97,,,,185.97,B,,1
Amateur Masters 45-49,104.6,110,M,Raw,Josue Rivera,,,183.7,,,,183.7,B,,1
Amateur Masters 45-49,106.23,110,M,Raw,Judd Long,,,172.37,,,,172.37,B,,2
Amateur Masters 60-64,105.07,110,M,Raw,Octavius Burnett,,,158.76,,,,158.76,B,,1
Amateur Masters 65-69,82.26,82.5,M,Raw,Douglas Hannum,,,120.2,,,,120.2,B,,1
Amateur Masters 65-69,123.6,125,M,Raw,Cory Stein,,,113.4,,,,113.4,B,,1
Amateur Masters 70-74,97.7,100,M,Raw,Brent Stine,,,106.59,,,,106.59,B,,1
Amateur Masters 75-79,96.03,100,M,Raw,Chuck Mulligan,,,124.74,127.01,,,124.74,B,,1
Amateur Teen 16-17,96.25,100,M,Multi-ply,Rob Madison,,,185.97,,,,185.97,B,,1
Amateur Masters 55-59,113.58,125,M,Multi-ply,Andrew Boxleitner,,,231.33,,,,231.33,B,,1
Pro Juniors 20-23,90.67,100,M,Raw,Antonio Rivera #1,,,206.38,,,,206.38,B,,1
Pro Open,90.67,100,M,Raw,Antonio Rivera #1,,,206.38,,,,206.38,B,,1
Pro Open,142.93,140+,M,Unlimited,Jimmy Kolb,,,598.74,,,,598.74,B,,1
Pro Masters 55-59,109.18,110,M,Multi-ply,Randy Robinson,,,294.84,,,,294.84,B,,1
Pro Masters 55-59,113.58,125,M,Multi-ply,Andrew Boxleitner,,,231.33,,,,231.33,B,,1
Pro Masters 60-64,108.86,110,M,Multi-ply,Mike Cantrell,,,258.55,,,,258.55,B,,1
Amateur Masters 60-64,74.71,75,M,Raw,George Reigel,,,,,163.29,,163.29,D,,1
Pro Teen 18-19,73.28,75,M,Raw,Logan Priesel,,,,,190.51,,190.51,D,,1
